<svg width="18" height="16" viewBox="0 0 18 16" fill="none" xmlns="http://www.w3.org/2000/svg">
<path d="M0.75 0.666748H17.25V2.50008H0.75V0.666748ZM0.75 7.08341H17.25V8.91675H0.75V7.08341ZM0.75 13.5001H17.25V15.3334H0.75V13.5001Z" fill="#BBBBBB"/>
</svg>
